{"records": [{
    "jsonSchemaLocation": "/servizioREST/Service Descriptors/serviziorest.Resource-Resource.json",
    "conversionType": "linked",
    "xsdSchemaTargetNamespace": "http://tns.tibco.com/bw/json/1602056309765"
}]}